^D:\DIT\YEAR 2\IGRA\LAB TASKS\IGRA\TASK1\TASK.CPP
/c /ZI /nologo /W3 /WX- /Od /Oy- /D WIN32 /D _DEBUG /D _WINDOWS /D _UNICODE /D UNICODE /Gm /EHsc /RTC1 /MDd /GS /fp:precise /Zc:wchar_t /Zc:forScope /Fo"DEBUG\\" /Fd"DEBUG\VC110.PDB" /Gd /TP /analyze- D:\DIT\YEAR 2\IGRA\LAB TASKS\IGRA\TASK1\TASK.CPP
^C:\USERS\8470P\DOCUMENTS\DIT\YEAR 2\IGRA\LAB TASKS\IGRA\TASK1\TASK.CPP
/c /ZI /nologo /W3 /WX- /Od /Oy- /D WIN32 /D _DEBUG /D _WINDOWS /D _UNICODE /D UNICODE /Gm /EHsc /RTC1 /MDd /GS /fp:precise /Zc:wchar_t /Zc:forScope /Fo"DEBUG\\" /Fd"DEBUG\VC110.PDB" /Gd /TP /analyze- C:\USERS\8470P\DOCUMENTS\DIT\YEAR 2\IGRA\LAB TASKS\IGRA\TASK1\TASK.CPP
