^D:\DIT\YEAR 2\IGRA\LAB TASKS\IGRA\DIRECTXTK\SRC\PCH.CPP
D:\DIT\YEAR 2\IGRA\LAB TASKS\IGRA\DIRECTXTK\BIN\DESKTOP_2012\X64\DEBUG\DIRECTXTK.PCH
D:\DIT\YEAR 2\IGRA\LAB TASKS\IGRA\DIRECTXTK\BIN\DESKTOP_2012\X64\DEBUG\PCH.OBJ
D:\DIT\YEAR 2\IGRA\LAB TASKS\IGRA\DIRECTXTK\BIN\DESKTOP_2012\X64\DEBUG\DIRECTXTK.PDB
^D:\DIT\YEAR 2\IGRA\LAB TASKS\IGRA\DIRECTXTK\SRC\ALPHATESTEFFECT.CPP|D:\DIT\YEAR 2\IGRA\LAB TASKS\IGRA\DIRECTXTK\SRC\BASICEFFECT.CPP|D:\DIT\YEAR 2\IGRA\LAB TASKS\IGRA\DIRECTXTK\SRC\BINARYREADER.CPP|D:\DIT\YEAR 2\IGRA\LAB TASKS\IGRA\DIRECTXTK\SRC\COMMONSTATES.CPP|D:\DIT\YEAR 2\IGRA\LAB TASKS\IGRA\DIRECTXTK\SRC\DDSTEXTURELOADER.CPP|D:\DIT\YEAR 2\IGRA\LAB TASKS\IGRA\DIRECTXTK\SRC\DGSLEFFECT.CPP|D:\DIT\YEAR 2\IGRA\LAB TASKS\IGRA\DIRECTXTK\SRC\DGSLEFFECTFACTORY.CPP|D:\DIT\YEAR 2\IGRA\LAB TASKS\IGRA\DIRECTXTK\SRC\DUALTEXTUREEFFECT.CPP|D:\DIT\YEAR 2\IGRA\LAB TASKS\IGRA\DIRECTXTK\SRC\EFFECTCOMMON.CPP|D:\DIT\YEAR 2\IGRA\LAB TASKS\IGRA\DIRECTXTK\SRC\EFFECTFACTORY.CPP|D:\DIT\YEAR 2\IGRA\LAB TASKS\IGRA\DIRECTXTK\SRC\ENVIRONMENTMAPEFFECT.CPP|D:\DIT\YEAR 2\IGRA\LAB TASKS\IGRA\DIRECTXTK\SRC\GEOMETRICPRIMITIVE.CPP|D:\DIT\YEAR 2\IGRA\LAB TASKS\IGRA\DIRECTXTK\SRC\MODEL.CPP|D:\DIT\YEAR 2\IGRA\LAB TASKS\IGRA\DIRECTXTK\SRC\MODELLOADCMO.CPP|D:\DIT\YEAR 2\IGRA\LAB TASKS\IGRA\DIRECTXTK\SRC\MODELLOADSDKMESH.CPP|D:\DIT\YEAR 2\IGRA\LAB TASKS\IGRA\DIRECTXTK\SRC\PRIMITIVEBATCH.CPP|D:\DIT\YEAR 2\IGRA\LAB TASKS\IGRA\DIRECTXTK\SRC\SCREENGRAB.CPP|D:\DIT\YEAR 2\IGRA\LAB TASKS\IGRA\DIRECTXTK\SRC\SKINNEDEFFECT.CPP|D:\DIT\YEAR 2\IGRA\LAB TASKS\IGRA\DIRECTXTK\SRC\SPRITEBATCH.CPP|D:\DIT\YEAR 2\IGRA\LAB TASKS\IGRA\DIRECTXTK\SRC\SPRITEFONT.CPP|D:\DIT\YEAR 2\IGRA\LAB TASKS\IGRA\DIRECTXTK\SRC\VERTEXTYPES.CPP|D:\DIT\YEAR 2\IGRA\LAB TASKS\IGRA\DIRECTXTK\SRC\WICTEXTURELOADER.CPP
D:\DIT\YEAR 2\IGRA\LAB TASKS\IGRA\DIRECTXTK\BIN\DESKTOP_2012\X64\DEBUG\COMMONSTATES.OBJ
D:\DIT\YEAR 2\IGRA\LAB TASKS\IGRA\DIRECTXTK\BIN\DESKTOP_2012\X64\DEBUG\DDSTEXTURELOADER.OBJ
D:\DIT\YEAR 2\IGRA\LAB TASKS\IGRA\DIRECTXTK\BIN\DESKTOP_2012\X64\DEBUG\DGSLEFFECT.OBJ
D:\DIT\YEAR 2\IGRA\LAB TASKS\IGRA\DIRECTXTK\BIN\DESKTOP_2012\X64\DEBUG\DGSLEFFECTFACTORY.OBJ
D:\DIT\YEAR 2\IGRA\LAB TASKS\IGRA\DIRECTXTK\BIN\DESKTOP_2012\X64\DEBUG\DUALTEXTUREEFFECT.OBJ
D:\DIT\YEAR 2\IGRA\LAB TASKS\IGRA\DIRECTXTK\BIN\DESKTOP_2012\X64\DEBUG\BINARYREADER.OBJ
D:\DIT\YEAR 2\IGRA\LAB TASKS\IGRA\DIRECTXTK\BIN\DESKTOP_2012\X64\DEBUG\EFFECTCOMMON.OBJ
D:\DIT\YEAR 2\IGRA\LAB TASKS\IGRA\DIRECTXTK\BIN\DESKTOP_2012\X64\DEBUG\EFFECTFACTORY.OBJ
D:\DIT\YEAR 2\IGRA\LAB TASKS\IGRA\DIRECTXTK\BIN\DESKTOP_2012\X64\DEBUG\ENVIRONMENTMAPEFFECT.OBJ
D:\DIT\YEAR 2\IGRA\LAB TASKS\IGRA\DIRECTXTK\BIN\DESKTOP_2012\X64\DEBUG\GEOMETRICPRIMITIVE.OBJ
D:\DIT\YEAR 2\IGRA\LAB TASKS\IGRA\DIRECTXTK\BIN\DESKTOP_2012\X64\DEBUG\MODEL.OBJ
D:\DIT\YEAR 2\IGRA\LAB TASKS\IGRA\DIRECTXTK\BIN\DESKTOP_2012\X64\DEBUG\MODELLOADCMO.OBJ
D:\DIT\YEAR 2\IGRA\LAB TASKS\IGRA\DIRECTXTK\BIN\DESKTOP_2012\X64\DEBUG\MODELLOADSDKMESH.OBJ
D:\DIT\YEAR 2\IGRA\LAB TASKS\IGRA\DIRECTXTK\BIN\DESKTOP_2012\X64\DEBUG\SCREENGRAB.OBJ
D:\DIT\YEAR 2\IGRA\LAB TASKS\IGRA\DIRECTXTK\BIN\DESKTOP_2012\X64\DEBUG\SKINNEDEFFECT.OBJ
D:\DIT\YEAR 2\IGRA\LAB TASKS\IGRA\DIRECTXTK\BIN\DESKTOP_2012\X64\DEBUG\SPRITEBATCH.OBJ
D:\DIT\YEAR 2\IGRA\LAB TASKS\IGRA\DIRECTXTK\BIN\DESKTOP_2012\X64\DEBUG\PRIMITIVEBATCH.OBJ
D:\DIT\YEAR 2\IGRA\LAB TASKS\IGRA\DIRECTXTK\BIN\DESKTOP_2012\X64\DEBUG\SPRITEFONT.OBJ
D:\DIT\YEAR 2\IGRA\LAB TASKS\IGRA\DIRECTXTK\BIN\DESKTOP_2012\X64\DEBUG\VERTEXTYPES.OBJ
D:\DIT\YEAR 2\IGRA\LAB TASKS\IGRA\DIRECTXTK\BIN\DESKTOP_2012\X64\DEBUG\WICTEXTURELOADER.OBJ
D:\DIT\YEAR 2\IGRA\LAB TASKS\IGRA\DIRECTXTK\BIN\DESKTOP_2012\X64\DEBUG\ALPHATESTEFFECT.OBJ
D:\DIT\YEAR 2\IGRA\LAB TASKS\IGRA\DIRECTXTK\BIN\DESKTOP_2012\X64\DEBUG\BASICEFFECT.OBJ
^D:\DIT\YEAR 2\IGRA\LAB TASKS\IGRA\DIRECTXTK\SRC\ALPHATESTEFFECT.CPP
D:\DIT\YEAR 2\IGRA\LAB TASKS\IGRA\DIRECTXTK\BIN\DESKTOP_2012\X64\DEBUG\DIRECTXTK.PDB
^D:\DIT\YEAR 2\IGRA\LAB TASKS\IGRA\DIRECTXTK\SRC\BASICEFFECT.CPP
D:\DIT\YEAR 2\IGRA\LAB TASKS\IGRA\DIRECTXTK\BIN\DESKTOP_2012\X64\DEBUG\DIRECTXTK.PDB
^D:\DIT\YEAR 2\IGRA\LAB TASKS\IGRA\DIRECTXTK\SRC\COMMONSTATES.CPP
D:\DIT\YEAR 2\IGRA\LAB TASKS\IGRA\DIRECTXTK\BIN\DESKTOP_2012\X64\DEBUG\DIRECTXTK.PDB
^D:\DIT\YEAR 2\IGRA\LAB TASKS\IGRA\DIRECTXTK\SRC\DDSTEXTURELOADER.CPP
D:\DIT\YEAR 2\IGRA\LAB TASKS\IGRA\DIRECTXTK\BIN\DESKTOP_2012\X64\DEBUG\DIRECTXTK.PDB
^D:\DIT\YEAR 2\IGRA\LAB TASKS\IGRA\DIRECTXTK\SRC\DGSLEFFECT.CPP
D:\DIT\YEAR 2\IGRA\LAB TASKS\IGRA\DIRECTXTK\BIN\DESKTOP_2012\X64\DEBUG\DIRECTXTK.PDB
^D:\DIT\YEAR 2\IGRA\LAB TASKS\IGRA\DIRECTXTK\SRC\DGSLEFFECTFACTORY.CPP
D:\DIT\YEAR 2\IGRA\LAB TASKS\IGRA\DIRECTXTK\BIN\DESKTOP_2012\X64\DEBUG\DIRECTXTK.PDB
^D:\DIT\YEAR 2\IGRA\LAB TASKS\IGRA\DIRECTXTK\SRC\DUALTEXTUREEFFECT.CPP
D:\DIT\YEAR 2\IGRA\LAB TASKS\IGRA\DIRECTXTK\BIN\DESKTOP_2012\X64\DEBUG\DIRECTXTK.PDB
^D:\DIT\YEAR 2\IGRA\LAB TASKS\IGRA\DIRECTXTK\SRC\BINARYREADER.CPP
D:\DIT\YEAR 2\IGRA\LAB TASKS\IGRA\DIRECTXTK\BIN\DESKTOP_2012\X64\DEBUG\DIRECTXTK.PDB
^D:\DIT\YEAR 2\IGRA\LAB TASKS\IGRA\DIRECTXTK\SRC\EFFECTCOMMON.CPP
D:\DIT\YEAR 2\IGRA\LAB TASKS\IGRA\DIRECTXTK\BIN\DESKTOP_2012\X64\DEBUG\DIRECTXTK.PDB
^D:\DIT\YEAR 2\IGRA\LAB TASKS\IGRA\DIRECTXTK\SRC\EFFECTFACTORY.CPP
D:\DIT\YEAR 2\IGRA\LAB TASKS\IGRA\DIRECTXTK\BIN\DESKTOP_2012\X64\DEBUG\DIRECTXTK.PDB
^D:\DIT\YEAR 2\IGRA\LAB TASKS\IGRA\DIRECTXTK\SRC\ENVIRONMENTMAPEFFECT.CPP
D:\DIT\YEAR 2\IGRA\LAB TASKS\IGRA\DIRECTXTK\BIN\DESKTOP_2012\X64\DEBUG\DIRECTXTK.PDB
^D:\DIT\YEAR 2\IGRA\LAB TASKS\IGRA\DIRECTXTK\SRC\GEOMETRICPRIMITIVE.CPP
D:\DIT\YEAR 2\IGRA\LAB TASKS\IGRA\DIRECTXTK\BIN\DESKTOP_2012\X64\DEBUG\DIRECTXTK.PDB
^D:\DIT\YEAR 2\IGRA\LAB TASKS\IGRA\DIRECTXTK\SRC\MODEL.CPP
D:\DIT\YEAR 2\IGRA\LAB TASKS\IGRA\DIRECTXTK\BIN\DESKTOP_2012\X64\DEBUG\DIRECTXTK.PDB
^D:\DIT\YEAR 2\IGRA\LAB TASKS\IGRA\DIRECTXTK\SRC\MODELLOADCMO.CPP
D:\DIT\YEAR 2\IGRA\LAB TASKS\IGRA\DIRECTXTK\BIN\DESKTOP_2012\X64\DEBUG\DIRECTXTK.PDB
^D:\DIT\YEAR 2\IGRA\LAB TASKS\IGRA\DIRECTXTK\SRC\MODELLOADSDKMESH.CPP
D:\DIT\YEAR 2\IGRA\LAB TASKS\IGRA\DIRECTXTK\BIN\DESKTOP_2012\X64\DEBUG\DIRECTXTK.PDB
^D:\DIT\YEAR 2\IGRA\LAB TASKS\IGRA\DIRECTXTK\SRC\SCREENGRAB.CPP
D:\DIT\YEAR 2\IGRA\LAB TASKS\IGRA\DIRECTXTK\BIN\DESKTOP_2012\X64\DEBUG\DIRECTXTK.PDB
^D:\DIT\YEAR 2\IGRA\LAB TASKS\IGRA\DIRECTXTK\SRC\SKINNEDEFFECT.CPP
D:\DIT\YEAR 2\IGRA\LAB TASKS\IGRA\DIRECTXTK\BIN\DESKTOP_2012\X64\DEBUG\DIRECTXTK.PDB
^D:\DIT\YEAR 2\IGRA\LAB TASKS\IGRA\DIRECTXTK\SRC\SPRITEBATCH.CPP
D:\DIT\YEAR 2\IGRA\LAB TASKS\IGRA\DIRECTXTK\BIN\DESKTOP_2012\X64\DEBUG\DIRECTXTK.PDB
^D:\DIT\YEAR 2\IGRA\LAB TASKS\IGRA\DIRECTXTK\SRC\PRIMITIVEBATCH.CPP
D:\DIT\YEAR 2\IGRA\LAB TASKS\IGRA\DIRECTXTK\BIN\DESKTOP_2012\X64\DEBUG\DIRECTXTK.PDB
^D:\DIT\YEAR 2\IGRA\LAB TASKS\IGRA\DIRECTXTK\SRC\SPRITEFONT.CPP
D:\DIT\YEAR 2\IGRA\LAB TASKS\IGRA\DIRECTXTK\BIN\DESKTOP_2012\X64\DEBUG\DIRECTXTK.PDB
^D:\DIT\YEAR 2\IGRA\LAB TASKS\IGRA\DIRECTXTK\SRC\VERTEXTYPES.CPP
D:\DIT\YEAR 2\IGRA\LAB TASKS\IGRA\DIRECTXTK\BIN\DESKTOP_2012\X64\DEBUG\DIRECTXTK.PDB
^D:\DIT\YEAR 2\IGRA\LAB TASKS\IGRA\DIRECTXTK\SRC\WICTEXTURELOADER.CPP
D:\DIT\YEAR 2\IGRA\LAB TASKS\IGRA\DIRECTXTK\BIN\DESKTOP_2012\X64\DEBUG\DIRECTXTK.PDB
