^D:\DIT\YEAR 2\IGRA\LAB TASKS\IGRA\DEBUG\IGRA.LIB|D:\DIT\YEAR 2\IGRA\LAB TASKS\IGRA\DIRECTXTK\BIN\DESKTOP_2012\WIN32\DEBUG\DIRECTXTK.LIB|D:\DIT\YEAR 2\IGRA\LAB TASKS\IGRA\TASK1\DEBUG\TASK.OBJ
/OUT:"D:\DIT\YEAR 2\IGRA\LAB TASKS\IGRA\DEBUG\TASK1.EXE" /INCREMENTAL /NOLOGO kernel32.lib user32.lib gdi32.lib winspool.lib comdlg32.lib advapi32.lib shell32.lib ole32.lib oleaut32.lib uuid.lib odbc32.lib odbccp32.lib /MANIFEST /MANIFESTUAC:"level='asInvoker' uiAccess='false'" /manifest:embed /DEBUG /PDB:"D:\DIT\YEAR 2\IGRA\LAB TASKS\IGRA\DEBUG\TASK1.PDB" /SUBSYSTEM:WINDOWS /TLBID:1 /DYNAMICBASE /NXCOMPAT /IMPLIB:"D:\DIT\YEAR 2\IGRA\LAB TASKS\IGRA\DEBUG\TASK1.LIB" /MACHINE:X86 DEBUG\TASK.OBJ"D:\DIT\YEAR 2\IGRA\LAB TASKS\IGRA\DIRECTXTK\BIN\DESKTOP_2012\WIN32\DEBUG\DIRECTXTK.LIB""D:\DIT\YEAR 2\IGRA\LAB TASKS\IGRA\DEBUG\IGRA.LIB"
^C:\USERS\8470P\DOCUMENTS\DIT\YEAR 2\IGRA\LAB TASKS\IGRA\DEBUG\IGRA.LIB|C:\USERS\8470P\DOCUMENTS\DIT\YEAR 2\IGRA\LAB TASKS\IGRA\DIRECTXTK\BIN\DESKTOP_2012\WIN32\DEBUG\DIRECTXTK.LIB|C:\USERS\8470P\DOCUMENTS\DIT\YEAR 2\IGRA\LAB TASKS\IGRA\TASK2\DEBUG\TASK2B.OBJ
/OUT:"C:\USERS\8470P\DOCUMENTS\DIT\YEAR 2\IGRA\LAB TASKS\IGRA\DEBUG\TASK2.EXE" /INCREMENTAL /NOLOGO kernel32.lib user32.lib gdi32.lib winspool.lib comdlg32.lib advapi32.lib shell32.lib ole32.lib oleaut32.lib uuid.lib odbc32.lib odbccp32.lib /MANIFEST /MANIFESTUAC:"level='asInvoker' uiAccess='false'" /manifest:embed /DEBUG /PDB:"C:\USERS\8470P\DOCUMENTS\DIT\YEAR 2\IGRA\LAB TASKS\IGRA\DEBUG\TASK2.PDB" /SUBSYSTEM:WINDOWS /TLBID:1 /DYNAMICBASE /NXCOMPAT /IMPLIB:"C:\USERS\8470P\DOCUMENTS\DIT\YEAR 2\IGRA\LAB TASKS\IGRA\DEBUG\TASK2.LIB" /MACHINE:X86 DEBUG\TASK2B.OBJ"C:\USERS\8470P\DOCUMENTS\DIT\YEAR 2\IGRA\LAB TASKS\IGRA\DIRECTXTK\BIN\DESKTOP_2012\WIN32\DEBUG\DIRECTXTK.LIB""C:\USERS\8470P\DOCUMENTS\DIT\YEAR 2\IGRA\LAB TASKS\IGRA\DEBUG\IGRA.LIB"
^C:\USERS\8470P\DOCUMENTS\DIT\YEAR 2\IGRA\LAB TASKS\IGRA\DEBUG\IGRA.LIB|C:\USERS\8470P\DOCUMENTS\DIT\YEAR 2\IGRA\LAB TASKS\IGRA\DIRECTXTK\BIN\DESKTOP_2012\WIN32\DEBUG\DIRECTXTK.LIB|C:\USERS\8470P\DOCUMENTS\DIT\YEAR 2\IGRA\LAB TASKS\IGRA\TASK3\DEBUG\TASK3A.OBJ
/OUT:"C:\USERS\8470P\DOCUMENTS\DIT\YEAR 2\IGRA\LAB TASKS\IGRA\DEBUG\TASK3.EXE" /INCREMENTAL /NOLOGO kernel32.lib user32.lib gdi32.lib winspool.lib comdlg32.lib advapi32.lib shell32.lib ole32.lib oleaut32.lib uuid.lib odbc32.lib odbccp32.lib /MANIFEST /MANIFESTUAC:"level='asInvoker' uiAccess='false'" /manifest:embed /DEBUG /PDB:"C:\USERS\8470P\DOCUMENTS\DIT\YEAR 2\IGRA\LAB TASKS\IGRA\DEBUG\TASK3.PDB" /SUBSYSTEM:WINDOWS /TLBID:1 /DYNAMICBASE /NXCOMPAT /IMPLIB:"C:\USERS\8470P\DOCUMENTS\DIT\YEAR 2\IGRA\LAB TASKS\IGRA\DEBUG\TASK3.LIB" /MACHINE:X86 DEBUG\TASK3A.OBJ"C:\USERS\8470P\DOCUMENTS\DIT\YEAR 2\IGRA\LAB TASKS\IGRA\DIRECTXTK\BIN\DESKTOP_2012\WIN32\DEBUG\DIRECTXTK.LIB""C:\USERS\8470P\DOCUMENTS\DIT\YEAR 2\IGRA\LAB TASKS\IGRA\DEBUG\IGRA.LIB"
