^C:\USERS\8470P\DOCUMENTS\DIT\YEAR 2\IGRA\LAB TASKS\IGRA\IGRA\SHADERS\VS_COLOR.HLSL
/nologo /E"main" /T vs_4_0_level_9_3 /Fo "..\Content\Shaders\VS_Color.cso" /Od /Zi C:\USERS\8470P\DOCUMENTS\DIT\YEAR 2\IGRA\LAB TASKS\IGRA\IGRA\SHADERS\VS_COLOR.HLSL
^C:\USERS\8470P\DOCUMENTS\DIT\YEAR 2\IGRA\LAB TASKS\IGRA\IGRA\SHADERS\VS_COLOURED3D.HLSL
/nologo /E"main" /T vs_4_0_level_9_3 /Fo "..\Content\Shaders\VS_Coloured3D.cso" /Od /Zi C:\USERS\8470P\DOCUMENTS\DIT\YEAR 2\IGRA\LAB TASKS\IGRA\IGRA\SHADERS\VS_COLOURED3D.HLSL
^C:\USERS\8470P\DOCUMENTS\DIT\YEAR 2\IGRA\LAB TASKS\IGRA\IGRA\SHADERS\PS_UNLIT.HLSL
/nologo /E"main" /T ps_4_0_level_9_3 /Fo "..\Content\Shaders\PS_unlit.cso" /Od /Zi C:\USERS\8470P\DOCUMENTS\DIT\YEAR 2\IGRA\LAB TASKS\IGRA\IGRA\SHADERS\PS_UNLIT.HLSL
^C:\USERS\8470P\DOCUMENTS\DIT\YEAR 2\IGRA\LAB TASKS\IGRA\IGRA\SHADERS\VS_DEFAULT.HLSL
/nologo /E"main" /T vs_4_0_level_9_3 /Fo "..\Content\Shaders\VS_default.cso" /Od /Zi C:\USERS\8470P\DOCUMENTS\DIT\YEAR 2\IGRA\LAB TASKS\IGRA\IGRA\SHADERS\VS_DEFAULT.HLSL
^C:\USERS\8470P\DOCUMENTS\DIT\YEAR 2\IGRA\LAB TASKS\IGRA\IGRA\SHADERS\PS_DUMMYLIGHT.HLSL
/nologo /E"main" /T ps_4_0_level_9_3 /Fo "..\Content\Shaders\PS_DummyLight.cso" /Od /Zi C:\USERS\8470P\DOCUMENTS\DIT\YEAR 2\IGRA\LAB TASKS\IGRA\IGRA\SHADERS\PS_DUMMYLIGHT.HLSL
^C:\USERS\8470P\DOCUMENTS\DIT\YEAR 2\IGRA\LAB TASKS\IGRA\IGRA\SHADERS\PS_COLOR.HLSL
/nologo /E"main" /T ps_4_0_level_9_3 /Fo "..\Content\Shaders\PS_Color.cso" /Od /Zi C:\USERS\8470P\DOCUMENTS\DIT\YEAR 2\IGRA\LAB TASKS\IGRA\IGRA\SHADERS\PS_COLOR.HLSL
