^C:\USERS\8470P\DOCUMENTS\DIT\YEAR 2\IGRA\LAB TASKS\IGRA\IGRA\SHADERS\VS_COLOR.HLSL
C:\PROGRAM FILES (X86)\WINDOWS KITS\8.0\BIN\X86\FXC.EXE
C:\WINDOWS\GLOBALIZATION\SORTING\SORTDEFAULT.NLS
^C:\USERS\8470P\DOCUMENTS\DIT\YEAR 2\IGRA\LAB TASKS\IGRA\IGRA\SHADERS\VS_COLOURED3D.HLSL
C:\PROGRAM FILES (X86)\WINDOWS KITS\8.0\BIN\X86\FXC.EXE
C:\WINDOWS\GLOBALIZATION\SORTING\SORTDEFAULT.NLS
^C:\USERS\8470P\DOCUMENTS\DIT\YEAR 2\IGRA\LAB TASKS\IGRA\IGRA\SHADERS\PS_UNLIT.HLSL
C:\PROGRAM FILES (X86)\WINDOWS KITS\8.0\BIN\X86\FXC.EXE
C:\USERS\8470P\DOCUMENTS\DIT\YEAR 2\IGRA\LAB TASKS\IGRA\IGRA\SHADERS\LIGHTHELPER.HLSLI
C:\WINDOWS\GLOBALIZATION\SORTING\SORTDEFAULT.NLS
^C:\USERS\8470P\DOCUMENTS\DIT\YEAR 2\IGRA\LAB TASKS\IGRA\IGRA\SHADERS\VS_DEFAULT.HLSL
C:\PROGRAM FILES (X86)\WINDOWS KITS\8.0\BIN\X86\FXC.EXE
C:\USERS\8470P\DOCUMENTS\DIT\YEAR 2\IGRA\LAB TASKS\IGRA\IGRA\SHADERS\LIGHTHELPER.HLSLI
C:\WINDOWS\GLOBALIZATION\SORTING\SORTDEFAULT.NLS
^C:\USERS\8470P\DOCUMENTS\DIT\YEAR 2\IGRA\LAB TASKS\IGRA\IGRA\SHADERS\PS_COLOR.HLSL
C:\PROGRAM FILES (X86)\WINDOWS KITS\8.0\BIN\X86\FXC.EXE
C:\WINDOWS\GLOBALIZATION\SORTING\SORTDEFAULT.NLS
^C:\USERS\8470P\DOCUMENTS\DIT\YEAR 2\IGRA\LAB TASKS\IGRA\IGRA\SHADERS\PS_DUMMYLIGHT.HLSL
C:\PROGRAM FILES (X86)\WINDOWS KITS\8.0\BIN\X86\FXC.EXE
C:\USERS\8470P\DOCUMENTS\DIT\YEAR 2\IGRA\LAB TASKS\IGRA\IGRA\SHADERS\LIGHTHELPER.HLSLI
C:\WINDOWS\GLOBALIZATION\SORTING\SORTDEFAULT.NLS
