^C:\PROGRAM FILES (X86)\MICROSOFT VISUAL STUDIO 11.0\COMMON7\IDE\VSWINEXPRESS\ITEMTEMPLATESCACHE\VC\HLSL\1033\PIXELSHADER\PIXELSHADER.HLSL
C:\PROGRAM FILES (X86)\WINDOWS KITS\8.0\BIN\X86\FXC.EXE
C:\WINDOWS\GLOBALIZATION\SORTING\SORTDEFAULT.NLS
^C:\PROGRAM FILES (X86)\MICROSOFT VISUAL STUDIO 11.0\COMMON7\IDE\VSWINEXPRESS\ITEMTEMPLATES\VC\HLSL\1033\VERTEXSHADER\VERTEXSHADER.HLSL
C:\PROGRAM FILES (X86)\WINDOWS KITS\8.0\BIN\X86\FXC.EXE
C:\WINDOWS\GLOBALIZATION\SORTING\SORTDEFAULT.NLS
^C:\USERS\8470P\DOCUMENTS\DIT\YEAR 2\IGRA\LAB TASKS\IGRA\TASK2\PIXELSHADER.HLSL
C:\PROGRAM FILES (X86)\WINDOWS KITS\8.0\BIN\X86\FXC.EXE
C:\WINDOWS\GLOBALIZATION\SORTING\SORTDEFAULT.NLS
^C:\USERS\8470P\DOCUMENTS\DIT\YEAR 2\IGRA\LAB TASKS\IGRA\TASK2\VERTEXSHADER.HLSL
C:\PROGRAM FILES (X86)\WINDOWS KITS\8.0\BIN\X86\FXC.EXE
C:\WINDOWS\GLOBALIZATION\SORTING\SORTDEFAULT.NLS
^C:\USERS\8470P\DOCUMENTS\DIT\YEAR 2\IGRA\LAB TASKS\IGRA\TASK2\PS_COLOR.HLSL
C:\PROGRAM FILES (X86)\WINDOWS KITS\8.0\BIN\X86\FXC.EXE
C:\WINDOWS\GLOBALIZATION\SORTING\SORTDEFAULT.NLS
^C:\USERS\8470P\DOCUMENTS\DIT\YEAR 2\IGRA\LAB TASKS\IGRA\TASK2\VS_COLOR.HLSL
C:\PROGRAM FILES (X86)\WINDOWS KITS\8.0\BIN\X86\FXC.EXE
C:\WINDOWS\GLOBALIZATION\SORTING\SORTDEFAULT.NLS
