^C:\USERS\8470P\DOCUMENTS\DIT\YEAR 2\IGRA\LAB TASKS\IGRA\DEBUG\IGRA.LIB|C:\USERS\8470P\DOCUMENTS\DIT\YEAR 2\IGRA\LAB TASKS\IGRA\DIRECTXTK\BIN\DESKTOP_2012\WIN32\DEBUG\DIRECTXTK.LIB|C:\USERS\8470P\DOCUMENTS\DIT\YEAR 2\IGRA\LAB TASKS\IGRA\TASK2\DEBUG\TASK2B.OBJ
C:\USERS\8470P\DOCUMENTS\DIT\YEAR 2\IGRA\LAB TASKS\IGRA\DEBUG\TASK2.ILK
C:\USERS\8470P\DOCUMENTS\DIT\YEAR 2\IGRA\LAB TASKS\IGRA\DEBUG\TASK2.EXE
C:\USERS\8470P\DOCUMENTS\DIT\YEAR 2\IGRA\LAB TASKS\IGRA\DEBUG\TASK2.PDB
